…
The following code chunk creates the data frame as required.

``` r
norm_distri = tibble(
  x = rnorm(1000),
  y = rnorm(1000),
  x_plus_y_more_than0 = c(x[1:1000] + y[1:1000] > 0 ),
  p2_num = as.numeric(x_plus_y_more_than0),
  p2_fac = as.factor(x_plus_y_more_than0)
)
norm_distri
```

    ## # A tibble: 1,000 x 5
    ##          x       y x_plus_y_more_than0 p2_num p2_fac
    ##      <dbl>   <dbl> <lgl>                <dbl> <fct> 
    ##  1  2.25   -0.235  TRUE                     1 TRUE  
    ##  2  0.431  -0.0989 TRUE                     1 TRUE  
    ##  3 -0.293   1.40   TRUE                     1 TRUE  
    ##  4 -0.289  -0.360  FALSE                    0 FALSE 
    ##  5  1.09   -2.11   FALSE                    0 FALSE 
    ##  6  0.453   0.325  TRUE                     1 TRUE  
    ##  7 -0.0549  1.65   TRUE                     1 TRUE  
    ##  8  0.0203  0.251  TRUE                     1 TRUE  
    ##  9 -0.953  -0.0675 FALSE                    0 FALSE 
    ## 10 -0.914   0.0136 FALSE                    0 FALSE 
    ## # ... with 990 more rows
…
